<?xml version="1.0" encoding="UTF-8"?>
<svg width="400" height="174" version="1.1" viewBox="0 0 400 174" xmlns="http://www.w3.org/2000/svg">
 <path d="m315 7.91c-16.891 0-46.913-16.943-66.393 12.36 0 0-25.134 39.281 63.11 77.8 0 0 1.3774 0.76118 4.0234 0.76118h0.035c2.6719 0 4.0286-0.76118 4.0286-0.76118 88.275-38.52 63.105-77.8 63.105-77.8-19.485-29.303-51.035-12.36-67.91-12.36" fill="#5c57a2"/>
 <path d="m315 4.68c-16.891 0-46.913-16.29-66.393 11.894 0 0-25.134 37.805 63.11 74.859 0 0 1.3774 0.73519 4.0234 0.73519h0.035c2.6719 0 4.0286-0.73519 4.0286-0.73519 88.276-37.054 63.105-74.859 63.105-74.859-19.486-28.184-51.035-11.894-67.911-11.894" fill="#159fdb"/>
 <path d="m349.3 41.04c0 12.37-15.327 22.374-34.216 22.374-18.9 0-34.211-10.004-34.211-22.374 0-12.36 15.311-22.369 34.211-22.369 18.89 0 34.216 10.009 34.216 22.369" fill="#5c57a2"/>
 <path d="m349.3 47.52c0 12.37-15.327 22.39-34.216 22.39-18.9 0-34.211-10.02-34.211-22.39 0-12.35 15.311-22.39 34.211-22.39 18.89 0 34.216 10.04 34.216 22.39" fill="#fff"/>
 <path d="m163.2 94.28v-8.4816h-1.2531c-2.0868 0-2.9722-0.90095-2.9722-2.9929v-5.0175c0-2.092 0.88536-2.9929 2.9722-2.9929h1.2531v-3.7023c0-2.3301 0.47114-3.4641 2.4854-3.9405l4.4635-0.95275c3.0344-0.66797 6.2498-1.6777 6.2498 2.3871v6.2085h6.8972c2.0764 0 2.9723 0.9009 2.9723 2.9929v5.0175c0 2.0919-0.8959 2.9929-2.9723 2.9929h-6.8972v8.3056c0 2.5062 0.7095 3.7696 3.2105 3.7696 1.0045 0 2.6718-0.3002 3.1482-0.36778 2.0143-0.35728 2.9049 0.4195 2.9049 2.5114v4.2978c0 2.0971-0.7094 3.2363-2.9049 3.9509-1.3153 0.4195-3.5677 0.83372-5.1781 0.83372-9.2169 0-14.379-3.0551-14.379-14.82m-41.748-2.6822c0-13.867 9.103-17.517 18.32-17.517 11.951 0 16.528 5.5612 16.528 11.785 0 6.9282-4.6396 8.057-12.785 8.5386l-8.5593 0.53854c0.47115 2.4492 2.325 3.521 6.7729 3.521 3.4538 0 7.1405-0.94758 9.6985-2.1437 1.9004-0.90091 3.6195-0.36234 3.6195 1.7295v4.5411c0 2.4492-1.4239 3.6454-3.3243 4.3651-3.6816 1.4344-8.2642 2.1489-11.832 2.1489-11.236 0-18.439-4.1787-18.439-17.507m13.442-3.3451 3.7489-0.2435c3.0861-0.18136 4.3289-0.95274 4.3289-2.4492 0-1.6673-1.5379-2.268-3.3813-2.268-3.1482 0-4.4013 2.0868-4.6965 4.9606m-32.046 9.1394v-29.996c0-2.092 0.89582-2.9929 2.9722-2.9929h7.2596c2.0712 0 2.967 0.90089 2.967 2.9929v28.681c0 1.2531 0.4816 2.035 1.8434 2.035 1.6622 0 2.3767 0.6576 2.3767 2.5684v4.479c0 2.0919-0.89069 3.0551-2.9049 3.4693-1.3723 0.29515-2.501 0.47627-3.9302 0.47627-8.6836 0-10.584-3.8835-10.584-11.713m-20.515-27.019c0-5.0176 3.7541-6.6849 8.0364-6.6849 4.2771 0 7.9638 1.6673 7.9638 6.6849 0 5.0227-3.7489 6.7574-8.0312 6.7574-4.2771 0-7.969-1.7347-7.969-6.7574m1.3722 35.03v-23.55c0-2.0919 1.481-2.3301 2.9153-2.0298 1.2428 0.23807 2.3767 0.35224 3.6816 0.35224 1.3153 0 2.4389-0.11456 3.6868-0.35224 1.4292-0.30019 2.9204-0.0617 2.9204 2.0298v23.55c0 2.0868-0.89064 2.9826-2.9774 2.9826h-7.2544c-2.0816 0-2.9722-0.89581-2.9722-2.9826m-40.197-13.805c0-13.328 7.6169-17.517 17.724-17.517 10.879 0 17.724 4.1891 17.724 17.517 0 13.328-7.6169 17.507-17.724 17.507-10.879 0-17.724-4.1787-17.724-17.507m22.069 0c0-4.0027-0.65759-6.571-4.3444-6.571-3.6868 0-4.3392 2.5683-4.3392 6.571 0 3.9974 0.65244 6.5761 4.3392 6.5761 3.6868 0 4.3444-2.5787 4.3444-6.5761m-45.967 13.722v-29.603h-8.5542c-2.3198 0-3.3192-0.91648-3.3192-3.0654v-6.3897c0-2.1437 0.99943-3.0654 3.3192-3.0654h32.301c2.325 0 3.314 0.92161 3.314 3.0654v6.3897c0 2.1489-0.98902 3.0654-3.314 3.0654h-8.5438v29.603c0 2.1437-1.0046 3.0654-3.3243 3.0654h-8.5542c-2.3249 0-3.3243-0.92161-3.3243-3.0654" fill="#159fdb"/>
 <path d="m366.7 159.52v-27.055c0-2.0453 0.8699-2.9256 2.9256-2.9256h5.5301c2.0299 0 2.9101 0.81298 2.9101 2.8634 2.8014-2.2784 6.4725-3.5728 9.4965-3.5728 6.8868 0 12.484 2.936 12.484 15.405v15.286c0 2.0557-0.8802 2.936-2.9204 2.936h-7.1043c-2.0505 0-2.9205-0.88025-2.9205-2.936v-13.758c0-3.5159-0.1813-6.0272-3.2673-6.0272-1.2738 0-2.6718 0.57476-4.1993 1.5741v18.211c0 2.0557-0.87 2.936-2.9101 2.936h-7.0991c-2.0557 0-2.9256-0.88025-2.9256-2.936m-38.815-13.525c0-13.064 7.4616-17.165 17.367-17.165 10.667 0 17.372 4.101 17.372 17.165s-7.4616 17.16-17.372 17.16c-10.667 0-17.367-4.0959-17.367-17.16m21.624 0c0-3.925-0.6473-6.4415-4.2564-6.4415-3.6143 0-4.2512 2.5165-4.2512 6.4415s0.6369 6.4415 4.2512 6.4415c3.6091 0 4.2564-2.5165 4.2564-6.4415m-39.985-20.795c0-4.9191 3.6713-6.5606 7.8655-6.5606 4.1943 0 7.8085 1.6414 7.8085 6.5606 0 4.9243-3.666 6.6176-7.8603 6.6176-4.2045 0-7.8137-1.6932-7.8137-6.6176m1.3412 34.32v-23.068c0-2.0557 1.4602-2.2784 2.8634-1.9884 1.2117 0.22796 2.325 0.34175 3.6092 0.34175 1.279 0 2.387-0.11456 3.6091-0.34175 1.4085-0.28971 2.8531-0.0676 2.8531 1.9884v23.068c0 2.0557-0.87 2.936-2.9101 2.936h-7.1043c-2.0453 0-2.9204-0.88025-2.9204-2.936m-26.993-10.889v-8.3107h-1.2117c-2.0556 0-2.9256-0.88024-2.9256-2.936v-4.9192c0-2.0505 0.87-2.9308 2.9256-2.9308h1.2117v-3.6298c0-2.2835 0.4764-3.3968 2.4596-3.868l4.3651-0.94246c2.9773-0.63687 6.1204-1.6311 6.1204 2.3508v6.0894h6.7677c2.0298 0 2.9101 0.88025 2.9101 2.9308v4.9192c0 2.0557-0.8802 2.936-2.9101 2.936h-6.7677v8.1347c0 2.4544 0.7094 3.6868 3.1534 3.6868 0.989 0 2.6201-0.29515 3.0861-0.35224 1.9833-0.34719 2.8532 0.41422 2.8532 2.4648v4.2149c0 2.0453-0.6939 3.1586-2.8532 3.8628-1.2841 0.40905-3.5003 0.82844-5.0693 0.82844-9.0304 0-14.115-2.9878-14.115-14.53m-18.703 10.724c-2.2162 2.0505-5.7062 3.8007-9.9729 3.8007-6.4674 0-12.64-3.9198-12.64-16.632 0-12.888 8.2123-17.693 15.265-17.693 5.6596 0 9.3308 2.9929 9.3308 2.9929 0-1.6363 0.6991-2.2835 2.325-2.2835h4.1476c2.0298 0 2.9204 0.87508 2.9204 2.9308v27.05c0 2.0608-0.8906 2.9411-2.9204 2.9411h-5.5509c-2.035 0-2.9049-1.0564-2.9049-3.1068m-1.6363-8.1451v-10.9c-0.8699-0.23301-1.9728-0.51783-2.91-0.51783-3.2622 0-4.9502 2.0505-4.9502 6.4415 0 3.9302 0.6938 6.4467 3.3761 6.4467 1.5119 0 3.0861-0.65243 4.4841-1.4705m-53.844 8.3108v-4.2046c0-2.0505 0.6369-3.578 2.035-4.9916l10.486-10.014h-9.0254c-2.0402 0-2.9204-0.86999-2.9204-2.9204v-4.9243c0-2.0453 0.8802-2.9256 2.9204-2.9256h22.96c2.035 0 2.9204 0.88024 2.9204 2.9256v4.2253c0 2.0401-0.642 3.5677-2.0402 4.9761l-10.496 10.009h10.206c2.035 0 2.9049 0.87508 2.9049 2.936v4.9088c0 2.0557-0.87 2.936-2.9049 2.936h-24.14c-2.035 0-2.9049-0.88025-2.9049-2.936m-18.366-34.32c0-4.9191 3.6713-6.5606 7.8759-6.5606 4.1889 0 7.798 1.6414 7.798 6.5606 0 4.9243-3.666 6.6176-7.8654 6.6176s-7.8085-1.6932-7.8085-6.6176m1.3463 34.32v-23.068c0-2.0557 1.455-2.2784 2.8479-1.9884 1.2273 0.22796 2.3353 0.34175 3.6143 0.34175 1.2842 0 2.3975-0.11456 3.6142-0.34175 1.3981-0.28971 2.8583-0.0676 2.8583 1.9884v23.068c0 2.0557-0.87 2.936-2.9153 2.936h-7.1145c-2.035 0-2.9049-0.88025-2.9049-2.936m-38.306 0v-27.055c0-2.0453 0.88551-2.9256 2.9204-2.9256h5.5354c2.0453 0 2.9152 0.81298 2.9152 2.8634 2.791-2.2784 6.4674-3.5728 9.5017-3.5728 6.8765 0 12.474 2.936 12.474 15.405v15.286c0 2.0557-0.87 2.936-2.9204 2.936h-7.1043c-2.0402 0-2.9101-0.88025-2.9101-2.936v-13.758c0-3.5159-0.1814-6.0272-3.2622-6.0272-1.2842 0-2.6926 0.57476-4.2046 1.5741v18.211c0 2.0557-0.86467 2.936-2.9152 2.936h-7.1095c-2.035 0-2.9204-0.88025-2.9204-2.936m-16.601-0.16582c-2.2162 2.0505-5.7166 3.8007-9.9729 3.8007-6.4622 0-12.65-3.9198-12.65-16.632 0-12.888 8.2227-17.693 15.28-17.693 5.6544 0 9.3205 2.9929 9.3205 2.9929 0-1.6363 0.70425-2.2835 2.3301-2.2835h4.1373c2.0454 0 2.9152 0.87508 2.9152 2.9308v27.05c0 2.0608-0.86995 2.9411-2.9152 2.9411h-5.5353c-2.035 0-2.9101-1.0564-2.9101-3.1068m-1.6362-8.1451v-10.9c-0.86995-0.23302-1.9832-0.51784-2.9153-0.51784-3.2622 0-4.9554 2.0505-4.9554 6.4415 0 3.9302 0.70424 6.4467 3.3864 6.4467 1.5172 0 3.0861-0.65244 4.4842-1.4706m-58.983-6.0894c0-12.888 8.2227-16.29 15.27-16.29 5.6544 0 9.3309 2.9929 9.3309 2.9929 0-1.6467 0.69912-2.2835 2.3301-2.2835h4.0803c2.0402 0 2.9152 0.88024 2.9152 2.9308v24.596c0 13.059-8.8648 16.285-17.491 16.285-5.2454 0-7.7515-0.23301-10.196-0.88024-1.9211-0.52299-2.8014-1.6363-2.8014-3.692v-3.7385c0-2.0557 0.69912-2.7651 2.6874-2.2318 2.9101 0.75593 4.8363 0.99414 8.0985 0.99414 4.8415 0 6.7625-2.1075 6.7625-5.5094v-0.98899c-2.1592 1.5741-5.0175 3.0395-8.3367 3.0395-6.4725 0-12.65-2.5114-12.65-15.223m20.987 3.0395v-7.8499c-0.88025-0.23302-1.9832-0.523-2.9153-0.523-3.2673 0-4.9554 1.4654-4.9554 5.0383 0 3.3346 0.69912 5.0382 3.3761 5.0382 1.5171 0 3.0861-0.75593 4.4945-1.7036m-32.82-6.7884v18.154c0 2.0505-0.86998 2.9204-2.9101 2.9204h-7.1094c-2.0454 0-2.9205-0.86995-2.9205-2.9204v-27.061c0-2.0505 0.87512-2.9256 2.9205-2.9256h5.5302c2.0402 0 2.9152 0.81298 2.9152 2.8634v2.1126c1.2324-3.925 5.9496-5.6855 8.1658-5.6855 2.035 0 2.9153 0.88025 2.9153 2.9308v7.7308c0 2.0505-0.88024 2.9308-2.9153 2.9308-1.8693 0-4.7794-0.64731-6.5917-1.0511m-58.546-0.91138c0-15.886 5.5923-22.706 20.101-22.706 14.623 0 20.21 5.613 20.21 22.706 0 15.897-5.6441 22.706-20.096 22.706-14.623 0-20.215-5.613-20.215-22.706m26.103 0c0-6.3379-0.35224-10.273-6.0014-10.273-5.5302 0-5.8926 4.0648-5.8926 10.273 0 6.2706 0.36233 10.284 5.8926 10.284 5.6493 0 6.0014-3.9509 6.0014-10.284m136.69-91.916c-2.2628 2.0867-5.8305 3.6454-10.175 3.6454-6.5917 0-12.904-4.0026-12.904-16.979 0-12.614 7.6169-18.046 16.425-18.046 2.0143 0 3.8628 0.3002 5.0434 0.60063v-7.2855c0-2.1023 0.89064-3.0033 2.9774-3.0033h7.2493c2.0816 0 2.9722 0.90094 2.9722 3.0033v37.997c0 2.0971-0.8907 2.9929-2.9722 2.9929h-5.6441c-2.0815 0-2.9722-0.83884-2.9722-2.9256m-1.6103-9.0254v-11.117c-0.88553-0.23301-2.0816-0.42462-3.0292-0.42462-3.3295 0-5.0486 2.1592-5.0486 6.6382 0 4.0078 0.70937 6.4518 3.4382 6.4518 1.6104 0 3.2156-0.65243 4.6396-1.5482m-41.382 0.95283v-29.991c0-2.0868 0.89582-2.9981 2.9722-2.9981h7.2545c2.0868 0 2.9826 0.91135 2.9826 2.9981v28.681c0 1.2582 0.4712 2.0298 1.833 2.0298 1.6674 0 2.3819 0.65756 2.3819 2.5683v4.479c0 2.0971-0.89066 3.0551-2.9204 3.4693-1.3618 0.30525-2.4907 0.48672-3.9146 0.48672-8.6784 0-10.589-3.8887-10.589-11.723m-13.966-10.517v18.527c0 2.0919-0.89069 2.9929-2.9722 2.9929h-7.2545c-2.0816 0-2.9774-0.90091-2.9774-2.9929v-27.609c0-2.0867 0.89578-2.9877 2.9774-2.9877h5.6441c2.0867 0 2.9722 0.83372 2.9722 2.9256v2.1489c1.2584-3.9975 6.0687-5.7891 8.3263-5.7891 2.0816 0 2.9722 0.90094 2.9722 2.9877v7.8862c0 2.0919-0.89065 2.9929-2.9722 2.9929-1.8952 0-4.8777-0.66284-6.7159-1.0822m-53.51 4.7224c0-13.323 7.6066-17.512 17.719-17.512 10.874 0 17.719 4.189 17.719 17.512 0 13.328-7.6065 17.517-17.719 17.517-10.884 0-17.719-4.1891-17.719-17.517m22.053 0c0-3.9974-0.65244-6.571-4.334-6.571-3.6868 0-4.3392 2.5735-4.3392 6.571 0 4.0026 0.65243 6.5761 4.3392 6.5761 3.6816 0 4.334-2.5735 4.334-6.5761m-73.561 14.064c-5.0693-10.185-7.5341-33.808-7.5341-38.359 0-1.9003 0.99943-2.4907 2.4648-2.4907h7.4253c2.6563 0 3.9457 0.76634 4.0648 2.7237 0.77146 11.304 1.9521 20.904 2.7237 26.403 1.3411-6.4518 3.5832-18.051 4.8208-26.403 0.29515-1.9573 1.2375-2.7237 3.8835-2.7237h6.0687c2.6563 0 3.5884 0.76634 3.8887 2.7237 1.1806 8.29 3.4745 19.894 4.7794 26.351 0.75593-5.4473 2.0039-15.047 2.7599-26.351 0.12466-1.9573 1.4188-2.7237 4.0648-2.7237h6.8299c1.4861 0 2.4751 0.59038 2.4751 2.4907 0 4.5515-2.4751 28.174-7.5341 38.359-0.82855 1.7243-1.5896 2.7288-4.5308 2.7288h-6.602c-2.9463 0-3.7748-1.0046-4.712-2.7288-2.18-4.1373-3.7127-10.475-4.9554-16.87-1.1081 6.3949-2.4699 12.733-4.6499 16.87-0.94763 1.7243-1.7657 2.7288-4.7121 2.7288h-6.4778c-2.9463 0-3.7127-1.0046-4.5411-2.7288" fill="#5c57a2"/>
</svg>
